/home/tri/work/workspace/sharon/src/jvm/storm/sharon/util/TwitterAuth.java
/home/tri/work/workspace/sharon/src/jvm/storm/sharon/util/TopicKeywordCommandHandler.java
/home/tri/work/workspace/sharon/src/jvm/storm/sharon/bolt/TweetCollectBolt.java
/home/tri/work/workspace/sharon/src/jvm/storm/sharon/spout/FetchUserMessageHandler.java
/home/tri/work/workspace/sharon/src/jvm/storm/sharon/util/MongoDBImpl.java
/home/tri/work/workspace/sharon/src/jvm/storm/sharon/RetrofitDatabase.java
/home/tri/work/workspace/sharon/src/jvm/storm/sharon/bolt/RankerBolt.java
/home/tri/work/workspace/sharon/src/jvm/storm/sharon/bolt/ExternalMessageQueueBolt.java
/home/tri/work/workspace/sharon/src/jvm/storm/sharon/util/Query.java
/home/tri/work/workspace/sharon/src/jvm/storm/sharon/algorithms/User.java
/home/tri/work/workspace/sharon/src/jvm/storm/sharon/algorithms/Node.java
/home/tri/work/workspace/sharon/src/jvm/storm/sharon/spout/CommandHandlerSpout.java
/home/tri/work/workspace/sharon/src/jvm/storm/sharon/algorithms/DiscussionStrategyA.java
/home/tri/work/workspace/sharon/src/jvm/storm/sharon/util/TweetProcessor.java
/home/tri/work/workspace/sharon/src/jvm/storm/sharon/util/window/ObjectMap.java
/home/tri/work/workspace/sharon/src/jvm/storm/sharon/bolt/CommandHandlerBolt.java
/home/tri/work/workspace/sharon/src/jvm/storm/sharon/algorithms/CommunityStrategyA.java
/home/tri/work/workspace/sharon/src/jvm/storm/sharon/bolt/GraphBolt.java
/home/tri/work/workspace/sharon/src/jvm/storm/sharon/spout/CommandSpout.java
/home/tri/work/workspace/sharon/src/jvm/storm/sharon/bolt/DiscussionAggregatorBolt.java
/home/tri/work/workspace/sharon/src/jvm/storm/sharon/spout/TwitterStreamTrackerSpout.java
/home/tri/work/workspace/sharon/src/jvm/storm/sharon/algorithms/RankedCollection.java
/home/tri/work/workspace/sharon/src/jvm/storm/sharon/util/Topic.java
/home/tri/work/workspace/sharon/src/jvm/storm/sharon/spout/TrackChangeMessageHandler.java
/home/tri/work/workspace/sharon/src/jvm/storm/sharon/bolt/RollingCountBolt.java
/home/tri/work/workspace/sharon/src/jvm/storm/sharon/spout/FileSpout.java
/home/tri/work/workspace/sharon/src/jvm/storm/sharon/bolt/TopicGrouping.java
/home/tri/work/workspace/sharon/src/jvm/storm/sharon/spout/FetchCommandsMessageHandler.java
/home/tri/work/workspace/sharon/src/jvm/storm/sharon/algorithms/DiscussionCollection.java
/home/tri/work/workspace/sharon/src/jvm/storm/sharon/util/window/SlidingWindowObjectTracker.java
/home/tri/work/workspace/sharon/src/jvm/storm/sharon/spout/FetchTweetMessageHandler.java
/home/tri/work/workspace/sharon/src/jvm/storm/sharon/util/SharonUser.java
/home/tri/work/workspace/sharon/src/jvm/storm/sharon/algorithms/DiscussionInterface.java
/home/tri/work/workspace/sharon/src/jvm/storm/sharon/util/Keyword.java
/home/tri/work/workspace/sharon/src/jvm/storm/sharon/util/MessageQueueInterface.java
/home/tri/work/workspace/sharon/src/jvm/storm/sharon/util/CredentialsManager.java
/home/tri/work/workspace/sharon/src/jvm/storm/sharon/util/Properties.java
/home/tri/work/workspace/sharon/src/jvm/storm/sharon/spout/TwitterUserTimelineSpout.java
/home/tri/work/workspace/sharon/src/jvm/storm/sharon/util/Stemmer.java
/home/tri/work/workspace/sharon/src/jvm/storm/sharon/bolt/MessageQueueBolt.java
/home/tri/work/workspace/sharon/src/jvm/storm/sharon/util/window/MRH_RollingTupleCounterImpl_A.java
/home/tri/work/workspace/sharon/src/jvm/storm/sharon/util/StopWords.java
/home/tri/work/workspace/sharon/src/jvm/storm/sharon/bolt/TopicLabellerBolt.java
/home/tri/work/workspace/sharon/src/jvm/storm/sharon/bolt/WindowedCommunityDetectorBolt.java
/home/tri/work/workspace/sharon/src/jvm/storm/sharon/bolt/ClusterBolt.java
/home/tri/work/workspace/sharon/src/jvm/storm/sharon/bolt/GenericMessageQueueBolt.java
/home/tri/work/workspace/sharon/src/jvm/storm/sharon/util/window/SlotBasedCounter.java
/home/tri/work/workspace/sharon/src/jvm/storm/sharon/util/window/SlotBasedObjectMap.java
/home/tri/work/workspace/sharon/src/jvm/storm/sharon/util/window/NthLastModifiedTimeTracker.java
/home/tri/work/workspace/sharon/src/jvm/storm/sharon/bolt/TopicTrackGrouping.java
/home/tri/work/workspace/sharon/src/jvm/storm/sharon/algorithms/CommunityCollection.java
/home/tri/work/workspace/sharon/src/jvm/storm/sharon/util/DBInterface.java
/home/tri/work/workspace/sharon/src/jvm/storm/sharon/util/TwitterStreamManager.java
/home/tri/work/workspace/sharon/src/jvm/storm/sharon/GenLicenseKeys.java
/home/tri/work/workspace/sharon/src/jvm/storm/sharon/util/window/Entry.java
/home/tri/work/workspace/sharon/src/jvm/storm/sharon/algorithms/RankingStrategyA.java
/home/tri/work/workspace/sharon/src/jvm/storm/sharon/util/TwitterManager.java
/home/tri/work/workspace/sharon/src/jvm/storm/sharon/bolt/MRH_TupleGeneratorBolt.java
/home/tri/work/workspace/sharon/src/jvm/storm/sharon/util/window/SlidingWindowCounter.java
/home/tri/work/workspace/sharon/src/jvm/storm/sharon/bolt/CommunityDetectorBolt.java
/home/tri/work/workspace/sharon/src/jvm/storm/sharon/util/FileMessageQueueImpl.java
/home/tri/work/workspace/sharon/src/jvm/storm/sharon/util/Settings.java
/home/tri/work/workspace/sharon/src/jvm/storm/sharon/util/window/RollingTupleCounterInterface.java
/home/tri/work/workspace/sharon/src/jvm/storm/sharon/util/window/Rankings.java
/home/tri/work/workspace/sharon/src/jvm/storm/sharon/util/TwitterQueryManager.java
/home/tri/work/workspace/sharon/src/jvm/storm/sharon/util/window/RollingTupleCounterImpl_A.java
/home/tri/work/workspace/sharon/src/jvm/storm/sharon/TwitterTrackerTopologyOne.java
/home/tri/work/workspace/sharon/src/jvm/storm/sharon/bolt/FilterBolt.java
/home/tri/work/workspace/sharon/src/jvm/storm/sharon/bolt/UserMessageQueueBolt.java
/home/tri/work/workspace/sharon/src/jvm/storm/sharon/util/window/RankableObjectWithFields.java
/home/tri/work/workspace/sharon/src/jvm/storm/sharon/spout/TwitterTweetTrackerSpout.java
/home/tri/work/workspace/sharon/src/jvm/storm/sharon/util/TopicKeywordHandler.java
/home/tri/work/workspace/sharon/src/jvm/storm/sharon/bolt/RollingTupleCountBolt.java
/home/tri/work/workspace/sharon/src/jvm/storm/sharon/util/window/Rankable.java
/home/tri/work/workspace/sharon/src/jvm/storm/sharon/util/UserCommandHandler.java
/home/tri/work/workspace/sharon/src/jvm/storm/sharon/util/QueryProcessor.java
/home/tri/work/workspace/sharon/src/jvm/storm/sharon/algorithms/RankingInterface.java
/home/tri/work/workspace/sharon/src/jvm/storm/sharon/algorithms/CommunityInterface.java
/home/tri/work/workspace/sharon/src/jvm/storm/sharon/util/UserHandler.java
